<?xml version="1.0" encoding="UTF-8" standalone="no"?>
<!-- Created with Inkscape (http://www.inkscape.org/) -->
<svg xmlns:dc="http://purl.org/dc/elements/1.1/" xmlns:cc="http://creativecommons.org/ns#" xmlns:rdf="http://www.w3.org/1999/02/22-rdf-syntax-ns#" xmlns:svg="http://www.w3.org/2000/svg" xmlns="http://www.w3.org/2000/svg" xmlns:sodipodi="http://sodipodi.sourceforge.net/DTD/sodipodi-0.dtd" xmlns:inkscape="http://www.inkscape.org/namespaces/inkscape" inkscape:version="0.92.5 (2060ec1f9f, 2020-04-08)" id="svg8" version="1.1" viewBox="0 0 210 297" height="297mm" width="210mm" enable-background="new" sodipodi:docname="drawing-4.svg">
  <defs id="defs2">
    <inkscape:perspective sodipodi:type="inkscape:persp3d" inkscape:vp_x="171.9664 : 152.03834 : 1" inkscape:vp_y="0 : 467.79474 : 0" inkscape:vp_z="300.50252 : 152.03834 : 1" inkscape:persp3d-origin="236.23447 : 128.88251 : 1" id="perspective3713"/>
    <filter height="1.3" width="1.3" y="-0.15" x="-0.15" inkscape:menu-tooltip="Van Gogh painting effect for bitmaps" inkscape:menu="Distort" inkscape:label="Pixel Smear" style="color-interpolation-filters:sRGB;" id="filter7148">
      <feTurbulence type="fractalNoise" numOctaves="3" baseFrequency="0.25 0.4" seed="5" id="feTurbulence7130"/>
      <feColorMatrix result="result5" values="1 0 0 0 0 0 1 0 0 0 0 0 1 0 0 0 0 0 1 0 " id="feColorMatrix7132"/>
      <feComposite in="SourceGraphic" operator="in" in2="result5" id="feComposite7134"/>
      <feMorphology operator="dilate" radius="1.5" result="result3" id="feMorphology7136"/>
      <feTurbulence numOctaves="5" baseFrequency="0.03" type="fractalNoise" seed="7" id="feTurbulence7138"/>
      <feGaussianBlur stdDeviation="0.5" result="result91" id="feGaussianBlur7140"/>
      <feDisplacementMap in="result3" xChannelSelector="R" yChannelSelector="G" scale="27" result="result4" in2="result91" id="feDisplacementMap7142"/>
      <feComposite in="result4" k3="0.8" k1="1.3" result="result2" operator="arithmetic" in2="result4" id="feComposite7144"/>
      <feBlend in2="result2" mode="screen" in="result2" id="feBlend7146"/>
    </filter>
    <filter inkscape:collect="always" style="color-interpolation-filters:sRGB" id="filter7507">
      <feBlend inkscape:collect="always" mode="overlay" in2="BackgroundImage" id="feBlend7509"/>
    </filter>
  </defs>
  <sodipodi:namedview id="base" pagecolor="#ffffff" bordercolor="#666666" borderopacity="1.0" inkscape:pageopacity="0.0" inkscape:pageshadow="2" inkscape:zoom="1.23" inkscape:cx="386.11753" inkscape:cy="390.28025" inkscape:document-units="mm" inkscape:current-layer="layer1" showgrid="false" showguides="false" inkscape:window-width="3840" inkscape:window-height="2081" inkscape:window-x="-9" inkscape:window-y="-9" inkscape:window-maximized="1"/>
  <metadata id="metadata5">
    <rdf:RDF>
      <cc:Work rdf:about="">
        <dc:format>image/svg+xml</dc:format>
        <dc:type rdf:resource="http://purl.org/dc/dcmitype/StillImage"/>
        <dc:title/>
      </cc:Work>
    </rdf:RDF>
  </metadata>
  <g inkscape:label="Layer 1" inkscape:groupmode="layer" id="layer1">
    <text xml:space="preserve" style="font-style:normal;font-weight:normal;font-size:10.58333302px;line-height:1.25;font-family:sans-serif;letter-spacing:0px;word-spacing:0px;fill:#000000;fill-opacity:1;stroke:none;stroke-width:0.26458332" x="89.995598" y="87.569252" id="text3768"><tspan sodipodi:role="line" id="tspan3766" x="89.995598" y="97.224747" style="stroke-width:0.26458332"/></text>
    <flowRoot xml:space="preserve" id="flowRoot4605" style="fill:black;fill-opacity:1;stroke:none;font-family:sans-serif;font-style:normal;font-weight:normal;font-size:40px;line-height:1.25;letter-spacing:0px;word-spacing:0px"><flowRegion id="flowRegion4607"><rect id="rect4609" width="55.767075" height="65.352043" x="363.35733" y="274.68588"/></flowRegion><flowPara id="flowPara4611"/></flowRoot>    <flowRoot xml:space="preserve" id="flowRoot4613" style="fill:black;fill-opacity:1;stroke:none;font-family:sans-serif;font-style:normal;font-weight:normal;font-size:40px;line-height:1.25;letter-spacing:0px;word-spacing:0px"><flowRegion id="flowRegion4615"><rect id="rect4617" width="73.194283" height="125.47591" x="158.58762" y="273.81451"/></flowRegion><flowPara id="flowPara4619"/></flowRoot>    <rect style="fill:#e9e9ff;fill-opacity:1;stroke-width:0.26458332;filter:url(#filter7507)" id="rect7128" width="170.79607" height="189.94072" x="23.661926" y="92.862122" transform="matrix(1.1900255,0,0,1.0546048,-20.1864,-4.6637324)"/>
    <g aria-label="Striving for Excellence" transform="matrix(1.0157105,-0.272148,0.28245413,0.97864944,-6.2108888,-4.8754322)" style="font-style:normal;font-weight:normal;font-size:10.58333302px;line-height:1.25;font-family:sans-serif;letter-spacing:0px;word-spacing:0px;fill:#000000;fill-opacity:1;stroke:none;stroke-width:0.26458332" id="text7513">
      <path d="m 11.21572,283.81169 q 0,0.44958 -0.211874,0.88883 -0.206705,0.43925 -0.583943,0.74414 -0.413412,0.33073 -0.9663496,0.51677 -0.5477702,0.18603 -1.3229167,0.18603 -0.8319905,0 -1.4986164,-0.15503 -0.6614584,-0.15503 -1.3487549,-0.45992 v -1.28157 h 0.072347 q 0.5839437,0.48575 1.3487549,0.7493 0.7648111,0.26355 1.4366047,0.26355 0.9508464,0 1.4779459,-0.35656 0.5322671,-0.35657 0.5322671,-0.95085 0,-0.5116 -0.2532143,-0.75448 -0.2480469,-0.24287 -0.7596436,-0.37723 -0.3875732,-0.10336 -0.8423258,-0.17054 -0.4495849,-0.0672 -0.9560139,-0.17053 -1.0231934,-0.21704 -1.5192871,-0.73897 -0.4909261,-0.5271 -0.4909261,-1.36943 0,-0.96635 0.8164876,-1.5813 0.8164876,-0.62011 2.0722249,-0.62011 0.8113199,0 1.4882812,0.15503 0.6769611,0.15503 1.1988931,0.3824 v 1.20923 h -0.07235 q -0.43925,-0.37207 -1.157552,-0.61495 -0.7131347,-0.24805 -1.462443,-0.24805 -0.8216552,0 -1.3229166,0.34107 -0.4960937,0.34106 -0.4960937,0.8785 0,0.48059 0.2480468,0.75447 0.2480469,0.27389 0.8733317,0.41858 0.3307292,0.0724 0.9405111,0.1757 0.6097818,0.10336 1.0335286,0.21188 0.8578291,0.22737 1.2919111,0.68729 0.434082,0.45992 0.434082,1.28675 z" style="stroke-width:0.26458332" id="path7534" inkscape:connector-curvature="0"/>
      <path d="m 15.778748,285.95626 q -0.273885,0.0724 -0.599446,0.11885 -0.320394,0.0465 -0.573609,0.0465 -0.883667,0 -1.343587,-0.47542 -0.45992,-0.47542 -0.45992,-1.52446 v -3.06958 h -0.656291 v -0.81648 h 0.656291 v -1.65882 h 0.971517 v 1.65882 h 2.005045 v 0.81648 h -2.005045 v 2.63034 q 0,0.45475 0.02067,0.71313 0.02067,0.25321 0.144694,0.47542 0.113689,0.20671 0.310059,0.30489 0.201538,0.093 0.609782,0.093 0.237712,0 0.496094,-0.0672 0.258382,-0.0723 0.37207,-0.11885 h 0.05168 z" style="stroke-width:0.26458332" id="path7536" inkscape:connector-curvature="0"/>
      <path d="m 20.558819,281.29504 h -0.05168 q -0.217041,-0.0517 -0.423746,-0.0723 -0.201539,-0.0258 -0.480591,-0.0258 -0.449585,0 -0.868164,0.20154 -0.418579,0.19637 -0.806153,0.51159 v 4.09794 h -0.971517 v -5.77225 h 0.971517 v 0.85266 q 0.578776,-0.46509 1.018026,-0.65629 0.444417,-0.19637 0.904338,-0.19637 0.253214,0 0.366902,0.0155 0.113688,0.0103 0.341065,0.0465 z" style="stroke-width:0.26458332" id="path7538" inkscape:connector-curvature="0"/>
      <path d="M 22.527691,279.26933 H 21.43215 v -1.00769 h 1.095541 z m -0.06201,6.7386 h -0.971517 v -5.77225 h 0.971517 z" style="stroke-width:0.26458332" id="path7540" inkscape:connector-curvature="0"/>
      <path d="m 29.390321,280.23568 -2.335775,5.77225 h -0.976684 l -2.320272,-5.77225 h 1.054199 l 1.788005,4.59403 1.772501,-4.59403 z" style="stroke-width:0.26458332" id="path7542" inkscape:connector-curvature="0"/>
      <path d="m 31.705425,279.26933 h -1.09554 v -1.00769 h 1.09554 z m -0.06201,6.7386 h -0.971516 v -5.77225 h 0.971516 z" style="stroke-width:0.26458332" id="path7544" inkscape:connector-curvature="0"/>
      <path d="m 38.402691,286.00793 h -0.971517 v -3.28662 q 0,-0.3979 -0.04651,-0.74414 -0.04651,-0.3514 -0.170532,-0.54777 -0.129191,-0.21704 -0.37207,-0.32039 -0.24288,-0.10852 -0.630453,-0.10852 -0.397908,0 -0.83199,0.19637 -0.434083,0.19637 -0.831991,0.50126 v 4.30981 h -0.971517 v -5.77225 h 0.971517 v 0.64078 q 0.454753,-0.37723 0.940511,-0.58911 0.485758,-0.21187 0.997355,-0.21187 0.935344,0 1.42627,0.56327 0.490926,0.56328 0.490926,1.62264 z" style="stroke-width:0.26458332" id="path7546" inkscape:connector-curvature="0"/>
      <path d="m 44.955262,285.35164 q 0,1.46761 -0.666626,2.15491 -0.666626,0.6873 -2.051554,0.6873 -0.45992,0 -0.89917,-0.0672 -0.434082,-0.062 -0.857829,-0.18087 v -0.99219 h 0.05168 q 0.237711,0.093 0.754476,0.22738 0.516764,0.13953 1.033528,0.13953 0.496094,0 0.821656,-0.11886 0.325561,-0.11886 0.506429,-0.33073 0.180867,-0.20154 0.258382,-0.48576 0.07751,-0.28422 0.07751,-0.63562 v -0.5271 q -0.439249,0.3514 -0.842325,0.5271 -0.397909,0.17053 -1.018026,0.17053 -1.033529,0 -1.643311,-0.74414 -0.604614,-0.7493 -0.604614,-2.10839 0,-0.74414 0.206706,-1.28158 0.211873,-0.5426 0.573608,-0.93534 0.335897,-0.36691 0.816488,-0.56844 0.480591,-0.20671 0.956014,-0.20671 0.501261,0 0.837158,0.10335 0.341064,0.0982 0.718302,0.30489 l 0.06201,-0.24804 h 0.909505 z m -0.971517,-0.93017 v -3.1471 q -0.387573,-0.1757 -0.72347,-0.24804 -0.330729,-0.0775 -0.661458,-0.0775 -0.800985,0 -1.260905,0.53744 -0.45992,0.53743 -0.45992,1.56063 0,0.97151 0.341064,1.47277 0.341065,0.50126 1.131714,0.50126 0.423747,0 0.847494,-0.16019 0.428914,-0.16537 0.785481,-0.43925 z" style="stroke-width:0.26458332" id="path7548" inkscape:connector-curvature="0"/>
      <path d="m 53.693745,278.90759 h -0.05168 q -0.160197,-0.0465 -0.418579,-0.093 -0.258382,-0.0517 -0.454753,-0.0517 -0.625284,0 -0.909505,0.27905 -0.279052,0.27389 -0.279052,0.99736 v 0.19637 h 1.751831 v 0.81648 h -1.720826 v 4.95577 h -0.971517 v -4.95577 h -0.65629 v -0.81648 h 0.65629 v -0.19121 q 0,-1.02836 0.511597,-1.57613 0.511597,-0.55293 1.477946,-0.55293 0.325562,0 0.583944,0.031 0.26355,0.031 0.480591,0.0723 z" style="stroke-width:0.26458332" id="path7550" inkscape:connector-curvature="0"/>
      <path d="m 59.22829,283.12439 q 0,1.41077 -0.72347,2.22725 -0.72347,0.81649 -1.937866,0.81649 -1.224731,0 -1.948201,-0.81649 -0.718303,-0.81648 -0.718303,-2.22725 0,-1.41077 0.718303,-2.22725 0.72347,-0.82166 1.948201,-0.82166 1.214396,0 1.937866,0.82166 0.72347,0.81648 0.72347,2.22725 z m -1.002522,0 q 0,-1.12138 -0.43925,-1.66398 -0.43925,-0.54777 -1.219564,-0.54777 -0.790649,0 -1.229899,0.54777 -0.434082,0.5426 -0.434082,1.66398 0,1.0852 0.43925,1.64848 0.439249,0.5581 1.224731,0.5581 0.775147,0 1.214396,-0.55293 0.444418,-0.55811 0.444418,-1.65365 z" style="stroke-width:0.26458332" id="path7552" inkscape:connector-curvature="0"/>
      <path d="m 64.339092,281.29504 h -0.05168 q -0.217041,-0.0517 -0.423747,-0.0723 -0.201538,-0.0258 -0.480591,-0.0258 -0.449585,0 -0.868164,0.20154 -0.418579,0.19637 -0.806152,0.51159 v 4.09794 h -0.971517 v -5.77225 h 0.971517 v 0.85266 q 0.578776,-0.46509 1.018025,-0.65629 0.444418,-0.19637 0.904338,-0.19637 0.253215,0 0.366903,0.0155 0.113688,0.0103 0.341064,0.0465 z" style="stroke-width:0.26458332" id="path7554" inkscape:connector-curvature="0"/>
      <path d="m 74.131776,286.00793 h -5.069458 v -7.69462 h 5.069458 v 0.90951 h -4.046265 v 2.1084 h 4.046265 v 0.9095 h -4.046265 v 2.85771 h 4.046265 z" style="stroke-width:0.26458332" id="path7556" inkscape:connector-curvature="0"/>
      <path d="m 80.67918,286.00793 h -1.224731 l -1.638143,-2.21691 -1.648478,2.21691 h -1.131714 l 2.253092,-2.87837 -2.232422,-2.89388 h 1.224732 l 1.627807,2.18074 1.632975,-2.18074 h 1.136882 l -2.268595,2.8422 z" style="stroke-width:0.26458332" id="path7558" inkscape:connector-curvature="0"/>
      <path d="m 86.11037,285.6462 q -0.485758,0.23254 -0.925008,0.36173 -0.434082,0.1292 -0.925008,0.1292 -0.625285,0 -1.147217,-0.18087 -0.521931,-0.18604 -0.894002,-0.55811 -0.377238,-0.37207 -0.583943,-0.94051 -0.206706,-0.56844 -0.206706,-1.32808 0,-1.41594 0.775146,-2.22209 0.780314,-0.80615 2.056722,-0.80615 0.496094,0 0.971517,0.13952 0.480591,0.13953 0.878499,0.34107 v 1.08004 h -0.05168 q -0.444417,-0.34624 -0.91984,-0.53227 -0.470256,-0.18604 -0.919841,-0.18604 -0.826823,0 -1.307414,0.55811 -0.475423,0.55294 -0.475423,1.62781 0,1.04386 0.465088,1.60713 0.470256,0.55811 1.317749,0.55811 0.294556,0 0.599447,-0.0775 0.304891,-0.0775 0.54777,-0.20154 0.211873,-0.10852 0.397908,-0.22738 0.186036,-0.12402 0.294556,-0.21187 h 0.05168 z" style="stroke-width:0.26458332" id="path7560" inkscape:connector-curvature="0"/>
      <path d="m 92.192687,283.22257 h -4.252971 q 0,0.53227 0.160197,0.93018 0.160197,0.39274 0.43925,0.64596 0.268717,0.24804 0.63562,0.37207 0.37207,0.12402 0.816488,0.12402 0.589111,0 1.18339,-0.23254 0.599446,-0.23772 0.852661,-0.46509 h 0.05168 v 1.05936 q -0.490926,0.20671 -1.002522,0.34624 -0.511597,0.13952 -1.07487,0.13952 -1.436605,0 -2.242757,-0.77514 -0.806153,-0.78032 -0.806153,-2.21175 0,-1.41594 0.769979,-2.24793 0.775147,-0.83199 2.036052,-0.83199 1.167887,0 1.798339,0.68213 0.635621,0.68213 0.635621,1.93787 z m -0.945679,-0.74414 q -0.0052,-0.76481 -0.387573,-1.18339 -0.377238,-0.41858 -1.152385,-0.41858 -0.780314,0 -1.245402,0.45993 -0.45992,0.45992 -0.521932,1.14204 z" style="stroke-width:0.26458332" id="path7562" inkscape:connector-curvature="0"/>
      <path d="m 94.64732,286.00793 h -0.971517 v -8.04085 h 0.971517 z" style="stroke-width:0.26458332" id="path7564" inkscape:connector-curvature="0"/>
      <path d="m 97.561871,286.00793 h -0.971517 v -8.04085 h 0.971517 z" style="stroke-width:0.26458332" id="path7566" inkscape:connector-curvature="0"/>
      <path d="m 104.32632,283.22257 h -4.25297 q 0,0.53227 0.16019,0.93018 0.1602,0.39274 0.43925,0.64596 0.26872,0.24804 0.63562,0.37207 0.37207,0.12402 0.81649,0.12402 0.58911,0 1.18339,-0.23254 0.59945,-0.23772 0.85266,-0.46509 h 0.0517 v 1.05936 q -0.49093,0.20671 -1.00253,0.34624 -0.51159,0.13952 -1.07487,0.13952 -1.4366,0 -2.242752,-0.77514 -0.806153,-0.78032 -0.806153,-2.21175 0,-1.41594 0.769979,-2.24793 0.775146,-0.83199 2.036056,-0.83199 1.16788,0 1.79834,0.68213 0.63562,0.68213 0.63562,1.93787 z m -0.94568,-0.74414 q -0.005,-0.76481 -0.38758,-1.18339 -0.37723,-0.41858 -1.15238,-0.41858 -0.78032,0 -1.2454,0.45993 -0.45992,0.45992 -0.52193,1.14204 z" style="stroke-width:0.26458332" id="path7568" inkscape:connector-curvature="0"/>
      <path d="m 110.62567,286.00793 h -0.97152 v -3.28662 q 0,-0.3979 -0.0465,-0.74414 -0.0465,-0.3514 -0.17053,-0.54777 -0.12919,-0.21704 -0.37207,-0.32039 -0.24288,-0.10852 -0.63045,-0.10852 -0.39791,0 -0.83199,0.19637 -0.43409,0.19637 -0.83199,0.50126 v 4.30981 h -0.97152 v -5.77225 h 0.97152 v 0.64078 q 0.45475,-0.37723 0.94051,-0.58911 0.48576,-0.21187 0.99735,-0.21187 0.93535,0 1.42627,0.56327 0.49093,0.56328 0.49093,1.62264 z" style="stroke-width:0.26458332" id="path7570" inkscape:connector-curvature="0"/>
      <path d="m 116.76483,285.6462 q -0.48576,0.23254 -0.92501,0.36173 -0.43408,0.1292 -0.92501,0.1292 -0.62528,0 -1.14722,-0.18087 -0.52193,-0.18604 -0.894,-0.55811 -0.37724,-0.37207 -0.58394,-0.94051 -0.20671,-0.56844 -0.20671,-1.32808 0,-1.41594 0.77515,-2.22209 0.78031,-0.80615 2.05672,-0.80615 0.4961,0 0.97152,0.13952 0.48059,0.13953 0.8785,0.34107 v 1.08004 h -0.0517 q -0.44442,-0.34624 -0.91984,-0.53227 -0.47025,-0.18604 -0.91984,-0.18604 -0.82682,0 -1.30741,0.55811 -0.47543,0.55294 -0.47543,1.62781 0,1.04386 0.46509,1.60713 0.47026,0.55811 1.31775,0.55811 0.29456,0 0.59945,-0.0775 0.30489,-0.0775 0.54777,-0.20154 0.21187,-0.10852 0.39791,-0.22738 0.18603,-0.12402 0.29455,-0.21187 h 0.0517 z" style="stroke-width:0.26458332" id="path7572" inkscape:connector-curvature="0"/>
      <path d="m 122.84714,283.22257 h -4.25297 q 0,0.53227 0.1602,0.93018 0.1602,0.39274 0.43925,0.64596 0.26872,0.24804 0.63562,0.37207 0.37207,0.12402 0.81649,0.12402 0.58911,0 1.18339,-0.23254 0.59944,-0.23772 0.85266,-0.46509 h 0.0517 v 1.05936 q -0.49093,0.20671 -1.00253,0.34624 -0.51159,0.13952 -1.07487,0.13952 -1.4366,0 -2.24275,-0.77514 -0.80616,-0.78032 -0.80616,-2.21175 0,-1.41594 0.76998,-2.24793 0.77515,-0.83199 2.03605,-0.83199 1.16789,0 1.79834,0.68213 0.63562,0.68213 0.63562,1.93787 z m -0.94568,-0.74414 q -0.005,-0.76481 -0.38757,-1.18339 -0.37724,-0.41858 -1.15238,-0.41858 -0.78032,0 -1.2454,0.45993 -0.45992,0.45992 -0.52194,1.14204 z" style="stroke-width:0.26458332" id="path7574" inkscape:connector-curvature="0"/>
    </g>
    <text xml:space="preserve" style="font-style:normal;font-weight:normal;font-size:10.58333302px;line-height:1.25;font-family:sans-serif;letter-spacing:0px;word-spacing:0px;fill:#000000;fill-opacity:1;stroke:none;stroke-width:0.26458332" x="-87.764221" y="130.93631" id="text7517"><tspan sodipodi:role="line" id="tspan7515" x="-87.764221" y="140.59181" style="stroke-width:0.26458332"/></text>
    <flowRoot xml:space="preserve" id="flowRoot7523" style="fill:black;fill-opacity:1;stroke:none;font-family:sans-serif;font-style:normal;font-weight:normal;font-size:40px;line-height:1.25;letter-spacing:0px;word-spacing:0px"><flowRegion id="flowRegion7525"><rect id="rect7527" width="65.040649" height="73.170731" x="-665.04065" y="-71.789291"/></flowRegion><flowPara id="flowPara7529"/></flowRoot>  </g>
  <g inkscape:groupmode="layer" id="layer3" inkscape:label="Layer 3"/>
  <g inkscape:groupmode="layer" id="layer2" inkscape:label="Layer 2">
    <path style="fill:#4d4d9f;fill-opacity:1;stroke-width:0.17658699" d="" id="path4641" inkscape:connector-curvature="0" transform="scale(0.26458333)"/>
    <path style="fill:#4d4d9f;fill-opacity:1;stroke-width:0.17658699" d="" id="path4645" inkscape:connector-curvature="0" transform="scale(0.26458333)"/>
    <path style="fill:#4d4d9f;fill-opacity:1;stroke-width:0.17658699" d="" id="path4681" inkscape:connector-curvature="0" transform="scale(0.26458333)"/>
    <path style="fill:#4d4d9f;fill-opacity:1;stroke-width:0.17658699" d="" id="path4689" inkscape:connector-curvature="0" transform="scale(0.26458333)"/>
    <path style="fill:#4d4d9f;fill-opacity:1;stroke-width:0.17658699" d="" id="path4695" inkscape:connector-curvature="0" transform="scale(0.26458333)"/>
    <path style="fill:#4d4d9f;fill-opacity:1;stroke-width:0.17658699" d="" id="path4705" inkscape:connector-curvature="0" transform="scale(0.26458333)"/>
    <path style="fill:#4d4d9f;fill-opacity:1;stroke-width:0.17658699" d="" id="path4707" inkscape:connector-curvature="0" transform="scale(0.26458333)"/>
    <path style="fill:#4d4d9f;fill-opacity:1;stroke-width:0.17658699" d="" id="path4721" inkscape:connector-curvature="0" transform="scale(0.26458333)"/>
    <path style="fill:#4d4d9f;fill-opacity:1;stroke-width:0.17658699" d="" id="path4731" inkscape:connector-curvature="0" transform="scale(0.26458333)"/>
    <path style="fill:#4d4d9f;fill-opacity:1;stroke-width:0.17658699" d="" id="path4751" inkscape:connector-curvature="0" transform="scale(0.26458333)"/>
    <path style="fill:#4d4d9f;fill-opacity:1;stroke-width:0.17658699" d="" id="path4763" inkscape:connector-curvature="0" transform="scale(0.26458333)"/>
    <path style="fill:#4d4d9f;fill-opacity:1;stroke-width:0.10849221" d="" id="path4771" inkscape:connector-curvature="0" transform="scale(0.26458333)"/>
    <path style="fill:#4d4d9f;fill-opacity:1;stroke-width:0.10849221" d="" id="path4773" inkscape:connector-curvature="0" transform="scale(0.26458333)"/>
    <path style="fill:#4d4d9f;fill-opacity:1;stroke-width:0.26525199" d="" id="path4777" inkscape:connector-curvature="0" transform="scale(0.26458333)"/>
    <path style="fill:#4d4d9f;fill-opacity:1;stroke-width:0.26525199" d="" id="path4783" inkscape:connector-curvature="0" transform="scale(0.26458333)"/>
    <path style="fill:#4d4d9f;fill-opacity:1;stroke-width:0.26525199" d="" id="path4785" inkscape:connector-curvature="0" transform="scale(0.26458333)"/>
    <path style="fill:#4d4d9f;fill-opacity:1;stroke-width:0.0538707" d="" id="path4797" inkscape:connector-curvature="0" transform="scale(0.26458333)"/>
    <path style="fill:#4d4d9f;fill-opacity:1;stroke-width:0.0538707" d="" id="path4799" inkscape:connector-curvature="0" transform="scale(0.26458333)"/>
    <path style="fill:#4d4d9f;fill-opacity:1;stroke-width:0.0538707" d="" id="path4821" inkscape:connector-curvature="0" transform="scale(0.26458333)"/>
    <path style="fill:#4d4d9f;fill-opacity:1;stroke-width:0.0538707" d="" id="path4845" inkscape:connector-curvature="0" transform="scale(0.26458333)"/>
    <path style="fill:#4d4d9f;fill-opacity:1;stroke-width:0.0538707" d="" id="path4847" inkscape:connector-curvature="0" transform="scale(0.26458333)"/>
    <path style="fill:#4d4d9f;fill-opacity:1;stroke-width:0.0538707" d="" id="path4849" inkscape:connector-curvature="0" transform="scale(0.26458333)"/>
    <path style="fill:#4d4d9f;fill-opacity:1;stroke-width:0.0538707" d="" id="path4851" inkscape:connector-curvature="0" transform="scale(0.26458333)"/>
    <path style="fill:#4d4d9f;fill-opacity:1;stroke-width:0.0538707" d="" id="path4853" inkscape:connector-curvature="0" transform="scale(0.26458333)"/>
    <path style="fill:#4d4d9f;fill-opacity:1;stroke-width:0.0538707" d="" id="path4857" inkscape:connector-curvature="0" transform="scale(0.26458333)"/>
    <path style="fill:#4d4d9f;fill-opacity:1;stroke-width:0.0538707" d="" id="path4859" inkscape:connector-curvature="0" transform="scale(0.26458333)"/>
    <path style="fill:#4d4d9f;fill-opacity:1;stroke-width:0.0538707" d="" id="path4861" inkscape:connector-curvature="0" transform="scale(0.26458333)"/>
    <path style="fill:#4d4dde;fill-opacity:1;stroke-width:0.0538707" d="" id="path4871" inkscape:connector-curvature="0" transform="scale(0.26458333)"/>
    <g style="" id="g7197">
      <g inkscape:corner7="-1.9384976 : 0.00086012338 : 0.25 : 1" inkscape:corner0="3.6299214 : 0.25095672 : 0 : 1" inkscape:perspectiveID="#perspective3713" id="g3715" sodipodi:type="inkscape:box3d" style="">
        <path points="185.84743,149.8761 191.72125,149.62433 191.72125,125.64979 185.84743,124.60701 " d="m 185.84743,124.60701 v 25.26909 l 5.87382,-0.25177 v -23.97454 z" inkscape:box3dsidetype="6" style="fill:#353564;fill-rule:evenodd;stroke:none;stroke-width:0.53509462;stroke-linejoin:round" id="path3717" sodipodi:type="inkscape:box3dside"/>
        <path points="103.48666,245.3779 103.48666,120.71709 185.84743,149.8761 185.84743,124.60701 " d="M 185.84743,124.60701 103.48666,245.3779 V 120.71709 l 82.36077,29.15901 z" inkscape:box3dsidetype="3" style="fill:#8686bf;fill-rule:evenodd;stroke:none;stroke-width:0.53509462;stroke-linejoin:round" id="path3721" sodipodi:type="inkscape:box3dside"/>
        <path points="103.48666,245.3779 31.948338,281.83998 191.72125,125.64979 185.84743,124.60701 " d="M 185.84743,124.60701 103.48666,245.3779 31.948338,281.83998 191.72125,125.64979 Z" inkscape:box3dsidetype="5" style="fill:#4d4d9f;fill-rule:evenodd;stroke:none;stroke-width:0.53509462;stroke-linejoin:round" id="path3719" sodipodi:type="inkscape:box3dside"/>
        <path points="31.948338,281.83998 31.948338,111.91366 191.72125,149.62433 191.72125,125.64979 " d="M 191.72125,125.64979 31.948338,281.83998 V 111.91366 l 159.772912,37.71067 z" inkscape:box3dsidetype="11" style="fill:#e9e9ff;fill-rule:evenodd;stroke:none;stroke-width:0.53509462;stroke-linejoin:round" id="path3727" sodipodi:type="inkscape:box3dside"/>
        <path points="103.48666,120.71709 31.948338,111.91366 191.72125,149.62433 185.84743,149.8761 " d="M 185.84743,149.8761 103.48666,120.71709 31.948338,111.91366 191.72125,149.62433 Z" inkscape:box3dsidetype="13" style="fill:#afafde;fill-rule:evenodd;stroke:none;stroke-width:0.53509462;stroke-linejoin:round" id="path3725" sodipodi:type="inkscape:box3dside"/>
        <path points="103.48666,120.71709 31.948338,111.91366 31.948338,281.83998 103.48666,245.3779 " d="M 103.48666,245.3779 V 120.71709 l -71.538322,-8.80343 v 169.92632 z" inkscape:box3dsidetype="14" style="fill:#d7d7ff;fill-rule:evenodd;stroke:none;stroke-width:0.53509462;stroke-linejoin:round" id="path3723" sodipodi:type="inkscape:box3dside"/>
      </g>
      <flowRoot transform="matrix(0.26458333,0,0,0.26458333,-45.583851,135.95789)" style="font-style:normal;font-weight:normal;font-size:192px;line-height:1.25;font-family:sans-serif;letter-spacing:0px;word-spacing:0px;fill:#000000;fill-opacity:1;stroke:none" id="flowRoot3770" xml:space="preserve"><flowRegion style="font-size:192px" id="flowRegion3772"><rect style="font-size:192px" y="332.37885" x="280.9859" height="219.71837" width="170.42255" id="rect3774"/></flowRegion><flowPara id="flowPara3776">O</flowPara></flowRoot>      <text id="text3780" y="232.45576" x="58.597889" style="font-style:normal;font-weight:normal;font-size:50.79999924px;line-height:1.25;font-family:sans-serif;letter-spacing:0px;word-spacing:0px;fill:#000000;fill-opacity:1;stroke:none;stroke-width:0.26458332" xml:space="preserve"><tspan style="font-size:50.79999924px;stroke-width:0.26458332" y="232.45576" x="58.597889" id="tspan3778" sodipodi:role="line">G</tspan></text>
      <text transform="scale(1.0027809,0.99722683)" id="text3784" y="166.5834" x="129.91505" style="font-style:normal;font-weight:normal;font-size:47.76660538px;line-height:1.25;font-family:sans-serif;letter-spacing:0px;word-spacing:0px;fill:#000000;fill-opacity:1;stroke:none;stroke-width:0.24878441" xml:space="preserve"><tspan style="font-size:47.76660538px;stroke-width:0.24878441" y="166.5834" x="129.91505" id="tspan3782" sodipodi:role="line">E</tspan></text>
      <text id="text3788" y="144.83589" x="166.6004" style="font-style:normal;font-weight:normal;font-size:50.79999924px;line-height:1.25;font-family:sans-serif;letter-spacing:0px;word-spacing:0px;fill:#000000;fill-opacity:1;stroke:none;stroke-width:0.26458332" xml:space="preserve"><tspan style="font-size:50.79999924px;stroke-width:0.26458332" y="144.83589" x="166.6004" id="tspan3786" sodipodi:role="line">L</tspan></text>
      <text transform="scale(1.0594891,0.94385114)" id="text4909" y="204.85144" x="87.777939" style="font-style:normal;font-weight:normal;font-size:53.96832275px;line-height:1.25;font-family:sans-serif;letter-spacing:0px;word-spacing:0px;fill:#000000;fill-opacity:1;stroke:none;stroke-width:1.349208" xml:space="preserve"><tspan style="stroke-width:1.349208" y="204.85144" x="87.777939" id="tspan4907" sodipodi:role="line">R</tspan></text>
      <path transform="scale(0.26458333)" inkscape:connector-curvature="0" id="path4769" d="m 466.73162,779.3609 c -0.0335,-0.0542 0.13869,-0.38795 0.38255,-0.74178 0.24387,-0.35382 0.64411,-0.93625 0.88942,-1.29427 0.24531,-0.35803 0.47051,-0.67537 0.50044,-0.7052 0.0299,-0.0298 0.25345,-0.34718 0.49672,-0.7052 0.24327,-0.35803 0.6581,-0.9683 0.92184,-1.35615 0.26375,-0.38786 0.50403,-0.72961 0.53396,-0.75945 0.0299,-0.0298 0.29852,-0.41708 0.59687,-0.86054 0.96864,-1.43974 1.94791,-2.86919 2.38344,-3.47915 0.23434,-0.32819 0.70731,-1.01169 1.05104,-1.51889 0.34373,-0.5072 0.78223,-1.14188 0.97445,-1.4104 0.30683,-0.42863 1.47538,-2.12997 1.77513,-2.58447 0.25153,-0.38139 1.78694,-2.57793 1.87153,-2.6774 0.0507,-0.0597 0.12574,-0.18172 0.16664,-0.27123 0.0409,-0.0895 0.37117,-0.57772 0.73391,-1.08492 0.36275,-0.5072 0.7418,-1.05614 0.84234,-1.21985 0.10055,-0.16372 0.21942,-0.29798 0.26417,-0.29836 0.0448,-3.8e-4 0.0814,-0.053 0.0814,-0.11686 0,-0.0993 0.91121,-1.46275 1.08248,-1.6197 0.0326,-0.0298 0.35352,-0.49364 0.71325,-1.03068 2.30517,-3.44135 2.86209,-4.22046 2.95233,-4.13022 0.0582,0.0582 -2.33457,3.57917 -10.80667,15.90163 -9.10979,13.24994 -8.31279,12.11585 -8.40721,11.96309 z" style="fill:#4d4d9f;fill-opacity:1;stroke-width:0.10849221"/>
      <path transform="scale(0.26458333)" inkscape:connector-curvature="0" id="path4793" d="m 128.6032,1059.6953 c 0.089,-0.078 60.60973,-30.5333 60.63164,-30.5114 0.0154,0.015 -0.42784,0.2642 -0.98495,0.553 -9.37276,4.8583 -13.42328,6.9341 -30.61487,15.6893 -9.84625,5.0144 -19.37736,9.8836 -23.66691,12.0907 -1.15043,0.592 -2.10438,1.0636 -2.11988,1.0481 -0.0155,-0.015 0.12578,-0.1058 0.31396,-0.2008 0.41089,-0.2073 1.59893,-0.8707 1.90237,-1.0622 0.34415,-0.2173 0.1323,-0.2 -0.41346,0.034 -0.63872,0.2736 -2.69101,1.2514 -3.96094,1.8872 -0.54042,0.2706 -1.01111,0.4919 -1.04599,0.4919 -0.0349,0 -0.0533,-0.01 -0.041,-0.02 z" style="fill:#4d4d9f;fill-opacity:1;stroke-width:0.0538707"/>
      <path transform="scale(0.26458333)" inkscape:connector-curvature="0" id="path4795" d="m 131.268,1058.3762 c 0.0498,-0.045 10.63773,-5.3779 39.69063,-19.9925 7.78723,-3.9173 14.1702,-7.1107 14.18438,-7.0965 0.0142,0.014 -0.55128,0.323 -1.25657,0.6862 -0.70529,0.3633 -2.43384,1.2537 -3.84121,1.9787 -3.35322,1.7275 -10.58053,5.4234 -17.72346,9.0634 -10.55123,5.3769 -18.67627,9.5235 -23.7729,12.1326 -2.77906,1.4227 -5.0651,2.5744 -5.0801,2.5594 -0.015,-0.015 0.12785,-0.114 0.31745,-0.22 0.38643,-0.2161 0.54182,-0.3584 0.39152,-0.3584 -0.0554,0 -0.0755,0.024 -0.0516,0.063 0.0263,0.043 0.009,0.052 -0.0519,0.028 -0.11687,-0.045 -0.36132,0.053 -1.70012,0.6838 -1.08248,0.5097 -1.20783,0.5631 -1.10614,0.472 z" style="fill:#4d4d9f;fill-opacity:1;stroke-width:0.0538707"/>
      <path transform="scale(0.26458333)" inkscape:connector-curvature="0" id="path4829" d="m 225.83533,1010.9914 c 0,-0.2665 0.12732,-0.362 1.1962,-0.8969 l 1.06637,-0.5337 v 0.2596 c 0,0.3001 0.13624,0.2093 -1.2783,0.852 -0.48084,0.2185 -0.89901,0.3973 -0.92927,0.3973 -0.0302,0 -0.055,-0.035 -0.055,-0.078 z" style="fill:#4d4d9f;fill-opacity:1;stroke-width:0.0538707"/>
      <path transform="scale(0.26458333)" inkscape:connector-curvature="0" id="path4855" d="m 465.47109,780.97038 c 0.0191,-0.0541 0.25729,-0.41772 0.52929,-0.80806 0.44988,-0.64561 0.6333,-0.86603 0.68098,-0.81835 0.0175,0.0175 -1.08991,1.57195 -1.19033,1.67089 -0.0368,0.0363 -0.0433,0.0218 -0.0199,-0.0445 z" style="fill:#4d4d9f;fill-opacity:1;stroke-width:0.0538707"/>
      <path transform="scale(0.26458333)" inkscape:connector-curvature="0" id="path4867" d="m 501.19543,729.21818 c 0.0183,-0.0296 0.044,-0.0539 0.0571,-0.0539 0.0131,0 0.0238,0.0242 0.0238,0.0539 0,0.0296 -0.0257,0.0539 -0.0571,0.0539 -0.0314,0 -0.0421,-0.0242 -0.0238,-0.0539 z" style="fill:#4d4d9f;fill-opacity:1;stroke-width:0.0538707"/>
      <path transform="scale(0.26458333)" inkscape:connector-curvature="0" id="path4869" d="m 501.06075,729.37979 c 0.0337,-0.063 0.11279,-0.10774 0.19044,-0.10774 0.18576,0 0.16553,0.0858 -0.0369,0.15634 -0.22108,0.0771 -0.22087,0.0771 -0.15357,-0.0486 z" style="fill:#4d4d9f;fill-opacity:1;stroke-width:0.0538707"/>
    </g>
  </g>
</svg>